[gd_scene load_steps=4 format=2]

[ext_resource path="res://PowerUp/Power_Ups_Scripts/PowerUp3.gd" type="Script" id=1]
[ext_resource path="res://PowerUp/Power_Ups_Sprites/bomb_area.png" type="Texture" id=2]

[sub_resource type="RectangleShape2D" id=1]
extents = Vector2( 3.36001, 3.35769 )

[node name="PowerUp1" type="Area2D"]
scale = Vector2( 1.2, 1.2 )
script = ExtResource( 1 )
__meta__ = {
"_edit_group_": true
}

[node name="Sprite" type="Sprite" parent="."]
position = Vector2( -0.044934, 8.23289e-07 )
scale = Vector2( 0.0769788, 0.0754469 )
texture = ExtResource( 2 )

[node name="CollisionShape2D" type="CollisionShape2D" parent="."]
shape = SubResource( 1 )
[connection signal="body_entered" from="." to="." method="_on_PowerUp1_body_entered"]
