[gd_scene load_steps=2 format=2]

[ext_resource path="res://Stage_01/Map_01/new_tileset.tres" type="TileSet" id=2]

[node name="Map_01" type="TileMap"]
tile_set = ExtResource( 2 )
cell_size = Vector2( 16, 16 )
format = 1
tile_data = PoolIntArray( 0, 11, 0, 1, 6, 0, 2, 7, 0, 3, 536870916, 0, 4, 536870916, 0, 5, 536870916, 0, 6, 536870916, 0, 7, 536870916, 0, 8, 536870916, 0, 9, 536870916, 0, 10, 536870916, 0, 11, 536870916, 0, 12, 536870916, 0, 13, 536870916, 0, 14, 536870916, 0, 15, 536870916, 0, 16, 536870919, 0, 17, 536870918, 0, 18, 536870923, 0, 65536, 9, 0, 65537, 2, 0, 65538, 0, 0, 65539, 0, 0, 65540, 0, 0, 65541, 0, 0, 65542, 0, 0, 65543, 0, 0, 65544, 0, 0, 65545, 0, 0, 65546, 0, 0, 65547, 0, 0, 65548, 0, 0, 65549, 0, 0, 65550, 0, 0, 65551, 0, 0, 65552, 0, 0, 65553, 536870914, 0, 65554, 536870921, 0, 131072, 9, 0, 131073, 2, 0, 131074, 0, 0, 131075, 1, 0, 131076, 0, 0, 131077, 1, 0, 131078, 0, 0, 131079, 1, 0, 131080, 0, 0, 131081, 1, 0, 131082, 0, 0, 131083, 1, 0, 131084, 0, 0, 131085, 1, 0, 131086, 0, 0, 131087, 1, 0, 131088, 0, 0, 131089, 536870914, 0, 131090, 536870921, 0, 196608, 9, 0, 196609, 2, 0, 196610, 0, 0, 196611, 0, 0, 196612, 0, 0, 196613, 0, 0, 196614, 0, 0, 196615, 0, 0, 196616, 0, 0, 196617, 0, 0, 196618, 0, 0, 196619, 0, 0, 196620, 0, 0, 196621, 0, 0, 196622, 0, 0, 196623, 0, 0, 196624, 0, 0, 196625, 536870914, 0, 196626, 536870921, 0, 262144, 9, 0, 262145, 2, 0, 262146, 0, 0, 262147, 1, 0, 262148, 0, 0, 262149, 1, 0, 262150, 0, 0, 262151, 1, 0, 262152, 0, 0, 262153, 1, 0, 262154, 0, 0, 262155, 1, 0, 262156, 0, 0, 262157, 1, 0, 262158, 0, 0, 262159, 1, 0, 262160, 0, 0, 262161, 536870914, 0, 262162, 536870921, 0, 327680, 9, 0, 327681, 2, 0, 327682, 0, 0, 327683, 0, 0, 327684, 0, 0, 327685, 0, 0, 327686, 0, 0, 327687, 0, 0, 327688, 0, 0, 327689, 0, 0, 327690, 0, 0, 327691, 0, 0, 327692, 0, 0, 327693, 0, 0, 327694, 0, 0, 327695, 0, 0, 327696, 0, 0, 327697, 536870914, 0, 327698, 536870921, 0, 393216, 9, 0, 393217, 2, 0, 393218, 0, 0, 393219, 1, 0, 393220, 0, 0, 393221, 1, 0, 393222, 0, 0, 393223, 1, 0, 393224, 0, 0, 393225, 1, 0, 393226, 0, 0, 393227, 1, 0, 393228, 0, 0, 393229, 1, 0, 393230, 0, 0, 393231, 1, 0, 393232, 0, 0, 393233, 536870914, 0, 393234, 536870921, 0, 458752, 9, 0, 458753, 2, 0, 458754, 0, 0, 458755, 0, 0, 458756, 0, 0, 458757, 0, 0, 458758, 0, 0, 458759, 0, 0, 458760, 0, 0, 458761, 0, 0, 458762, 0, 0, 458763, 0, 0, 458764, 0, 0, 458765, 0, 0, 458766, 0, 0, 458767, 0, 0, 458768, 0, 0, 458769, 536870914, 0, 458770, 536870921, 0, 524288, 9, 0, 524289, 2, 0, 524290, 0, 0, 524291, 1, 0, 524292, 0, 0, 524293, 1, 0, 524294, 0, 0, 524295, 1, 0, 524296, 0, 0, 524297, 1, 0, 524298, 0, 0, 524299, 1, 0, 524300, 0, 0, 524301, 1, 0, 524302, 0, 0, 524303, 1, 0, 524304, 0, 0, 524305, 536870914, 0, 524306, 536870921, 0, 589824, 9, 0, 589825, 2, 0, 589826, 0, 0, 589827, 0, 0, 589828, 0, 0, 589829, 0, 0, 589830, 0, 0, 589831, 0, 0, 589832, 0, 0, 589833, 0, 0, 589834, 0, 0, 589835, 0, 0, 589836, 0, 0, 589837, 0, 0, 589838, 0, 0, 589839, 0, 0, 589840, 0, 0, 589841, 536870914, 0, 589842, 536870921, 0, 655360, 9, 0, 655361, 2, 0, 655362, 0, 0, 655363, 1, 0, 655364, 0, 0, 655365, 1, 0, 655366, 0, 0, 655367, 1, 0, 655368, 0, 0, 655369, 1, 0, 655370, 0, 0, 655371, 1, 0, 655372, 0, 0, 655373, 1, 0, 655374, 0, 0, 655375, 1, 0, 655376, 0, 0, 655377, 536870914, 0, 655378, 536870921, 0, 720896, 9, 0, 720897, 2, 0, 720898, 0, 0, 720899, 0, 0, 720900, 0, 0, 720901, 0, 0, 720902, 0, 0, 720903, 0, 0, 720904, 0, 0, 720905, 0, 0, 720906, 0, 0, 720907, 0, 0, 720908, 0, 0, 720909, 0, 0, 720910, 0, 0, 720911, 0, 0, 720912, 0, 0, 720913, 536870914, 0, 720914, 536870921, 0, 786433, 5, 0, 786434, 536870915, 0, 786435, 536870915, 0, 786436, 536870915, 0, 786437, 536870915, 0, 786438, 536870915, 0, 786439, 536870915, 0, 786440, 536870915, 0, 786441, 536870915, 0, 786442, 536870915, 0, 786443, 536870915, 0, 786444, 536870915, 0, 786445, 536870915, 0, 786446, 536870915, 0, 786447, 536870915, 0, 786448, 536870915, 0, 786449, 536870917, 0 )

[node name="Blocks_01" type="TileMap" parent="."]
tile_set = ExtResource( 2 )
cell_size = Vector2( 16, 16 )
format = 1
tile_data = PoolIntArray( 0, 11, 0, 18, 536870923, 0, 65542, 8, 0, 65543, 8, 0, 65544, 8, 0, 65545, 8, 0, 131078, 8, 0, 131084, 8, 0, 131086, 8, 0, 196613, 8, 0, 196614, 8, 0, 196615, 8, 0, 196616, 8, 0, 196617, 8, 0, 196618, 8, 0, 196619, 8, 0, 196621, 8, 0, 196623, 8, 0, 262148, 8, 0, 262150, 8, 0, 262152, 8, 0, 262154, 8, 0, 262158, 8, 0, 262160, 8, 0, 327682, 8, 0, 327683, 8, 0, 327684, 8, 0, 327685, 8, 0, 327686, 8, 0, 327687, 8, 0, 327691, 8, 0, 327696, 8, 0, 393218, 8, 0, 393222, 8, 0, 393232, 8, 0, 458754, 8, 0, 458759, 8, 0, 458763, 8, 0, 458764, 8, 0, 458765, 8, 0, 458766, 8, 0, 458767, 8, 0, 458768, 8, 0, 524290, 8, 0, 524292, 8, 0, 524296, 8, 0, 524298, 8, 0, 524300, 8, 0, 524302, 8, 0, 589827, 8, 0, 589829, 8, 0, 589831, 8, 0, 589832, 8, 0, 589833, 8, 0, 589834, 8, 0, 589835, 8, 0, 589836, 8, 0, 589837, 8, 0, 655364, 8, 0, 655366, 8, 0, 655372, 8, 0, 720905, 8, 0, 720906, 8, 0, 720907, 8, 0, 720908, 8, 0, 786432, 10, 0, 786450, 536870922, 0 )
